-----STARTING SERVER-----
Sun Oct 28 18:54:03 EDT 2012	|> Wes is online
Sun Oct 28 18:54:25 EDT 2012	|> Nexus is online
Sun Oct 28 18:54:42 EDT 2012	|> Andrew is online
Sun Oct 28 18:54:51 EDT 2012	|> Wes messaged Nexus "Hello"
Sun Oct 28 18:54:55 EDT 2012	|> Wes messaged Andrew "Hi"
Sun Oct 28 18:55:04 EDT 2012	|> Nexus messaged Wes "oh Hai"
Sun Oct 28 18:55:13 EDT 2012	|> Andrew messaged Wes "sup"
Sun Oct 28 18:55:17 EDT 2012	|> Wes is offline
Sun Oct 28 18:55:27 EDT 2012	|> Nexus messaged Andrew "so lonely"
Sun Oct 28 18:55:31 EDT 2012	|> Dave is online
Sun Oct 28 18:55:36 EDT 2012	|> Andrew messaged Nexus "sniff"
Sun Oct 28 18:55:37 EDT 2012	|> Dave messaged Andrew "sup"
Sun Oct 28 18:55:49 EDT 2012	|> Andrew messaged Dave "boo"
Sun Oct 28 18:55:58 EDT 2012	|> Nexus messaged Andrew "later"
Sun Oct 28 18:55:59 EDT 2012	|> Dave is offline
Sun Oct 28 18:56:03 EDT 2012	|> Andrew is offline
Sun Oct 28 18:56:10 EDT 2012	|> Nexus is offline